{
  "schema": {
    "id": { "type": "string", "size": 2, "primaryKey": true },
    "name": { "type": "string" },
    "iso3": { "type": "string", "size": 3 },
    "phoneCode": { "type": "string", "size": 20 },
    "capital": { "type": "string", "size": 50 },
    "currency": { "type": "string", "size": 20 },
    "mmsi": { "type": "string", "size": 50 },
    "ioc": { "type": "string", "size": 10 }
  },
  "fixture": [
    {
      "name": "Afghanistan",
      "iso3": "AFG",
      "phoneCode": "93",
      "capital": "Kabul",
      "currency": "AFN",
      "mmsi": "401",
      "id": "AF",
      "ioc": "AFG",
      "simop": null
    },
    {
      "name": "Aland Islands",
      "iso3": "ALA",
      "phoneCode": "+358-18",
      "capital": "Mariehamn",
      "currency": "EUR",
      "mmsi": null,
      "id": "AX",
      "ioc": null,
      "simop": null
    },
    {
      "name": "Albania",
      "iso3": "ALB",
      "phoneCode": "355",
      "capital": "Tirana",
      "currency": "ALL",
      "mmsi": "201",
      "id": "AL",
      "ioc": "ALB",
      "simop": "ALB"
    },
    {
      "name": "Algeria",
      "iso3": "DZA",
      "phoneCode": "213",
      "capital": "Algiers",
      "currency": "DZD",
      "mmsi": "605",
      "id": "DZ",
      "ioc": "ALG",
      "simop": "ALG"
    },
    {
      "name": "American Samoa",
      "iso3": "ASM",
      "phoneCode": "+1-684",
      "capital": "Pago Pago",
      "currency": "USD",
      "mmsi": "559",
      "id": "AS",
      "ioc": "ASA",
      "simop": "AMS"
    },
    {
      "name": "Andorra",
      "iso3": "AND",
      "phoneCode": "376",
      "capital": "Andorra la Vella",
      "currency": "EUR",
      "mmsi": "202",
      "id": "AD",
      "ioc": "AND",
      "simop": null
    },
    {
      "name": "Angola",
      "iso3": "AGO",
      "phoneCode": "244",
      "capital": "Luanda",
      "currency": "AOA",
      "mmsi": "603",
      "id": "AO",
      "ioc": "ANG",
      "simop": "ANG"
    },
    {
      "name": "Anguilla",
      "iso3": "AIA",
      "phoneCode": "+1-264",
      "capital": "The Valley",
      "currency": "XCD",
      "mmsi": "301",
      "id": "AI",
      "ioc": null,
      "simop": null
    },
    {
      "name": "Antarctica",
      "iso3": "ATA",
      "phoneCode": null,
      "capital": null,
      "currency": null,
      "mmsi": null,
      "id": "AQ",
      "ioc": null,
      "simop": null
    },
    {
      "name": "Antigua And Barbuda",
      "iso3": "ATG",
      "phoneCode": "+1-268",
      "capital": "St. John's",
      "currency": "XCD",
      "mmsi": "304, 305",
      "id": "AG",
      "ioc": "ANT",
      "simop": "ANT, ANB"
    },
    {
      "name": "Argentina",
      "iso3": "ARG",
      "phoneCode": "54",
      "capital": "Buenos Aires",
      "currency": "ARS",
      "mmsi": "701",
      "id": "AR",
      "ioc": "ARG",
      "simop": "ARG"
    },
    {
      "name": "Armenia",
      "iso3": "ARM",
      "phoneCode": "374",
      "capital": "Yerevan",
      "currency": "AMD",
      "mmsi": "216",
      "id": "AM",
      "ioc": "ARM",
      "simop": "ARM"
    },
    {
      "name": "Aruba",
      "iso3": "ABW",
      "phoneCode": "297",
      "capital": "Oranjestad",
      "currency": "AWG",
      "mmsi": "307",
      "id": "AW",
      "ioc": "ARU",
      "simop": null
    },
    {
      "name": "Australia",
      "iso3": "AUS",
      "phoneCode": "61",
      "capital": "Canberra",
      "currency": "AUD",
      "mmsi": "503",
      "id": "AU",
      "ioc": "AUS",
      "simop": "AUS"
    },
    {
      "name": "Austria",
      "iso3": "AUT",
      "phoneCode": "43",
      "capital": "Vienna",
      "currency": "EUR",
      "mmsi": "203",
      "id": "AT",
      "ioc": "AUT",
      "simop": "AUT"
    },
    {
      "name": "Azerbaijan",
      "iso3": "AZE",
      "phoneCode": "994",
      "capital": "Baku",
      "currency": "AZN",
      "mmsi": "423",
      "id": "AZ",
      "ioc": "AZE",
      "simop": null
    },
    {
      "name": "Bahamas The",
      "iso3": "BHS",
      "phoneCode": "+1-242",
      "capital": "Nassau",
      "currency": "BSD",
      "mmsi": "308, 309, 311",
      "id": "BS",
      "ioc": "BAH",
      "simop": "BAH"
    },
    {
      "name": "Bahrain",
      "iso3": "BHR",
      "phoneCode": "973",
      "capital": "Manama",
      "currency": "BHD",
      "mmsi": "408",
      "id": "BH",
      "ioc": "BRN",
      "simop": "BHR"
    },
    {
      "name": "Bangladesh",
      "iso3": "BGD",
      "phoneCode": "880",
      "capital": "Dhaka",
      "currency": "BDT",
      "mmsi": "405",
      "id": "BD",
      "ioc": "BAN",
      "simop": "BGD"
    },
    {
      "name": "Barbados",
      "iso3": "BRB",
      "phoneCode": "+1-246",
      "capital": "Bridgetown",
      "currency": "BBD",
      "mmsi": "314",
      "id": "BB",
      "ioc": "BAR",
      "simop": "BAR"
    },
    {
      "name": "Belarus",
      "iso3": "BLR",
      "phoneCode": "375",
      "capital": "Minsk",
      "currency": "BYR",
      "mmsi": "206",
      "id": "BY",
      "ioc": "BLR",
      "simop": null
    },
    {
      "name": "Belgium",
      "iso3": "BEL",
      "phoneCode": "32",
      "capital": "Brussels",
      "currency": "EUR",
      "mmsi": "205",
      "id": "BE",
      "ioc": "BEL",
      "simop": "BGM"
    },
    {
      "name": "Belize",
      "iso3": "BLZ",
      "phoneCode": "501",
      "capital": "Belmopan",
      "currency": "BZD",
      "mmsi": "312",
      "id": "BZ",
      "ioc": "BIZ",
      "simop": "BEL"
    },
    {
      "name": "Benin",
      "iso3": "BEN",
      "phoneCode": "229",
      "capital": "Porto-Novo",
      "currency": "XOF",
      "mmsi": "610",
      "id": "BJ",
      "ioc": "BEN",
      "simop": "BEN"
    },
    {
      "name": "Bermuda",
      "iso3": "BMU",
      "phoneCode": "+1-441",
      "capital": "Hamilton",
      "currency": "BMD",
      "mmsi": "310",
      "id": "BM",
      "ioc": "BER",
      "simop": null
    },
    {
      "name": "Bhutan",
      "iso3": "BTN",
      "phoneCode": "975",
      "capital": "Thimphu",
      "currency": "BTN",
      "mmsi": "410",
      "id": "BT",
      "ioc": "BHU",
      "simop": null
    },
    {
      "name": "Bolivia",
      "iso3": "BOL",
      "phoneCode": "591",
      "capital": "Sucre",
      "currency": "BOB",
      "mmsi": "720",
      "id": "BO",
      "ioc": "BOL",
      "simop": "BOL"
    },
    {
      "name": "Bosnia and Herzegovina",
      "iso3": "BIH",
      "phoneCode": "387",
      "capital": "Sarajevo",
      "currency": "BAM",
      "mmsi": "478",
      "id": "BA",
      "ioc": "BIH",
      "simop": "BOS"
    },
    {
      "name": "Botswana",
      "iso3": "BWA",
      "phoneCode": "267",
      "capital": "Gaborone",
      "currency": "BWP",
      "mmsi": "611",
      "id": "BW",
      "ioc": "BOT",
      "simop": "BW"
    },
    {
      "name": "Bouvet Island",
      "iso3": "BVT",
      "phoneCode": null,
      "capital": null,
      "currency": "NOK",
      "mmsi": null,
      "id": "BV",
      "ioc": null,
      "simop": null
    },
    {
      "name": "Brazil",
      "iso3": "BRA",
      "phoneCode": "55",
      "capital": "Brasilia",
      "currency": "BRL",
      "mmsi": "710",
      "id": "BR",
      "ioc": "BRA",
      "simop": "BRS"
    },
    {
      "name": "British Indian Ocean Territory",
      "iso3": "IOT",
      "phoneCode": "246",
      "capital": "Diego Garcia",
      "currency": "USD",
      "mmsi": null,
      "id": "IO",
      "ioc": null,
      "simop": null
    },
    {
      "name": "Brunei",
      "iso3": "BRN",
      "phoneCode": "673",
      "capital": "Bandar Seri Begawan",
      "currency": "BND",
      "mmsi": "508",
      "id": "BN",
      "ioc": "BRU",
      "simop": "BRN"
    },
    {
      "name": "Bulgaria",
      "iso3": "BGR",
      "phoneCode": "359",
      "capital": "Sofia",
      "currency": "BGN",
      "mmsi": "207",
      "id": "BG",
      "ioc": "BUL",
      "simop": "BUL"
    },
    {
      "name": "Burkina Faso",
      "iso3": "BFA",
      "phoneCode": "226",
      "capital": "Ouagadougou",
      "currency": "XOF",
      "mmsi": "633",
      "id": "BF",
      "ioc": "BUR",
      "simop": "FS"
    },
    {
      "name": "Burundi",
      "iso3": "BDI",
      "phoneCode": "257",
      "capital": "Bujumbura",
      "currency": "BIF",
      "mmsi": "609",
      "id": "BI",
      "ioc": "BDI",
      "simop": "BUR"
    },
    {
      "name": "Cambodia",
      "iso3": "KHM",
      "phoneCode": "855",
      "capital": "Phnom Penh",
      "currency": "KHR",
      "mmsi": "514, 515",
      "id": "KH",
      "ioc": "CAM",
      "simop": "CAM, KAM"
    },
    {
      "name": "Cameroon",
      "iso3": "CMR",
      "phoneCode": "237",
      "capital": "Yaounde",
      "currency": "XAF",
      "mmsi": "613",
      "id": "CM",
      "ioc": "CMR",
      "simop": "CMR"
    },
    {
      "name": "Canada",
      "iso3": "CAN",
      "phoneCode": "1",
      "capital": "Ottawa",
      "currency": "CAD",
      "mmsi": "316",
      "id": "CA",
      "ioc": "CAN",
      "simop": "CAN, KAN"
    },
    {
      "name": "Cape Verde",
      "iso3": "CPV",
      "phoneCode": "238",
      "capital": "Praia",
      "currency": "CVE",
      "mmsi": "617",
      "id": "CV",
      "ioc": "CPV",
      "simop": "CAP, CVI"
    },
    {
      "name": "Cayman Islands",
      "iso3": "CYM",
      "phoneCode": "+1-345",
      "capital": "George Town",
      "currency": "KYD",
      "mmsi": "319",
      "id": "KY",
      "ioc": "CAY",
      "simop": "CAY"
    },
    {
      "name": "Central African Republic",
      "iso3": "CAF",
      "phoneCode": "236",
      "capital": "Bangui",
      "currency": "XAF",
      "mmsi": "612",
      "id": "CF",
      "ioc": "CAF",
      "simop": null
    },
    {
      "name": "Chad",
      "iso3": "TCD",
      "phoneCode": "235",
      "capital": "N'Djamena",
      "currency": "XAF",
      "mmsi": "670",
      "id": "TD",
      "ioc": "CHA",
      "simop": null
    },
    {
      "name": "Chile",
      "iso3": "CHL",
      "phoneCode": "56",
      "capital": "Santiago",
      "currency": "CLP",
      "mmsi": "725",
      "id": "CL",
      "ioc": "CHI",
      "simop": "CHL, CHI"
    },
    {
      "name": "China",
      "iso3": "CHN",
      "phoneCode": "86",
      "capital": "Beijing",
      "currency": "CNY",
      "mmsi": "412, 413, 414",
      "id": "CN",
      "ioc": "CHN",
      "simop": "CN, CHN, PRC"
    },
    {
      "name": "Christmas Island",
      "iso3": "CXR",
      "phoneCode": "61",
      "capital": "Flying Fish Cove",
      "currency": "AUD",
      "mmsi": "516",
      "id": "CX",
      "ioc": null,
      "simop": null
    },
    {
      "name": "Cocos (Keeling) Islands",
      "iso3": "CCK",
      "phoneCode": "61",
      "capital": "West Island",
      "currency": "AUD",
      "mmsi": "523",
      "id": "CC",
      "ioc": null,
      "simop": null
    },
    {
      "name": "Colombia",
      "iso3": "COL",
      "phoneCode": "57",
      "capital": "Bogota",
      "currency": "COP",
      "mmsi": "730",
      "id": "CO",
      "ioc": "COL",
      "simop": "CLM, COL"
    },
    {
      "name": "Comoros",
      "iso3": "COM",
      "phoneCode": "269",
      "capital": "Moroni",
      "currency": "KMF",
      "mmsi": "616, 620",
      "id": "KM",
      "ioc": "COM",
      "simop": "KM"
    },
    {
      "name": "Congo",
      "iso3": "COG",
      "phoneCode": "242",
      "capital": "Brazzaville",
      "currency": "XAF",
      "mmsi": "615, 676",
      "id": "CG",
      "ioc": "CGO",
      "simop": "COD"
    },
    {
      "name": "Congo The Democratic Republic Of The",
      "iso3": "COD",
      "phoneCode": "243",
      "capital": "Kinshasa",
      "currency": "CDF",
      "mmsi": null,
      "id": "CD",
      "ioc": "COD",
      "simop": null
    },
    {
      "name": "Cook Islands",
      "iso3": "COK",
      "phoneCode": "682",
      "capital": "Avarua",
      "currency": "NZD",
      "mmsi": "518",
      "id": "CK",
      "ioc": "COK",
      "simop": "CIS"
    },
    {
      "name": "Costa Rica",
      "iso3": "CRI",
      "phoneCode": "506",
      "capital": "San Jose",
      "currency": "CRC",
      "mmsi": "321",
      "id": "CR",
      "ioc": "CRC",
      "simop": "COS"
    },
    {
      "name": "Cote D'Ivoire (Ivory Coast)",
      "iso3": "CIV",
      "phoneCode": "225",
      "capital": "Yamoussoukro",
      "currency": "XOF",
      "mmsi": "619",
      "id": "CI",
      "ioc": "CIV",
      "simop": null
    },
    {
      "name": "Croatia (Hrvatska)",
      "iso3": "HRV",
      "phoneCode": "385",
      "capital": "Zagreb",
      "currency": "HRK",
      "mmsi": "238",
      "id": "HR",
      "ioc": "CRO",
      "simop": "CRO, KRO"
    },
    {
      "name": "Cuba",
      "iso3": "CUB",
      "phoneCode": "53",
      "capital": "Havana",
      "currency": "CUP",
      "mmsi": "323",
      "id": "CU",
      "ioc": "CUB",
      "simop": "CUB, KBA"
    },
    {
      "name": "Cyprus",
      "iso3": "CYP",
      "phoneCode": "357",
      "capital": "Nicosia",
      "currency": "EUR",
      "mmsi": "209, 210, 212",
      "id": "CY",
      "ioc": "CYP",
      "simop": "CYP"
    },
    {
      "name": "Czech Republic",
      "iso3": "CZE",
      "phoneCode": "420",
      "capital": "Prague",
      "currency": "CZK",
      "mmsi": "270",
      "id": "CZ",
      "ioc": "CZE",
      "simop": "CZE"
    },
    {
      "name": "Denmark",
      "iso3": "DNK",
      "phoneCode": "45",
      "capital": "Copenhagen",
      "currency": "DKK",
      "mmsi": "219, 220, 231",
      "id": "DK",
      "ioc": "DEN",
      "simop": "DEN, DAN"
    },
    {
      "name": "Djibouti",
      "iso3": "DJI",
      "phoneCode": "253",
      "capital": "Djibouti",
      "currency": "DJF",
      "mmsi": "621",
      "id": "DJ",
      "ioc": "DJI",
      "simop": "JIB"
    },
    {
      "name": "Dominica",
      "iso3": "DMA",
      "phoneCode": "+1-767",
      "capital": "Roseau",
      "currency": "XCD",
      "mmsi": "325",
      "id": "DM",
      "ioc": "DMA",
      "simop": "DOM"
    },
    {
      "name": "Dominican Republic",
      "iso3": "DOM",
      "phoneCode": "+1-809 and 1-829",
      "capital": "Santo Domingo",
      "currency": "DOP",
      "mmsi": "327",
      "id": "DO",
      "ioc": "DOM",
      "simop": null
    },
    {
      "name": "East Timor",
      "iso3": "TLS",
      "phoneCode": "670",
      "capital": "Dili",
      "currency": "USD",
      "mmsi": "550",
      "id": "TL",
      "ioc": "TLS",
      "simop": "RTT"
    },
    {
      "name": "Ecuador",
      "iso3": "ECU",
      "phoneCode": "593",
      "capital": "Quito",
      "currency": "USD",
      "mmsi": "735",
      "id": "EC",
      "ioc": "ECU",
      "simop": "EQU"
    },
    {
      "name": "Egypt",
      "iso3": "EGY",
      "phoneCode": "20",
      "capital": "Cairo",
      "currency": "EGP",
      "mmsi": "622",
      "id": "EG",
      "ioc": "EGY",
      "simop": "EGT"
    },
    {
      "name": "El Salvador",
      "iso3": "SLV",
      "phoneCode": "503",
      "capital": "San Salvador",
      "currency": "USD",
      "mmsi": "359",
      "id": "SV",
      "ioc": "ESA",
      "simop": "SPY, ELS"
    },
    {
      "name": "Equatorial Guinea",
      "iso3": "GNQ",
      "phoneCode": "240",
      "capital": "Malabo",
      "currency": "XAF",
      "mmsi": "631",
      "id": "GQ",
      "ioc": "GEQ",
      "simop": "EGU, EQG, EQ"
    },
    {
      "name": "Eritrea",
      "iso3": "ERI",
      "phoneCode": "291",
      "capital": "Asmara",
      "currency": "ERN",
      "mmsi": "625",
      "id": "ER",
      "ioc": "ERI",
      "simop": null
    },
    {
      "name": "Estonia",
      "iso3": "EST",
      "phoneCode": "372",
      "capital": "Tallinn",
      "currency": "EUR",
      "mmsi": "276",
      "id": "EE",
      "ioc": "EST",
      "simop": "EST"
    },
    {
      "name": "Ethiopia",
      "iso3": "ETH",
      "phoneCode": "251",
      "capital": "Addis Ababa",
      "currency": "ETB",
      "mmsi": "624",
      "id": "ET",
      "ioc": "ETH",
      "simop": "ETH"
    },
    {
      "name": "Falkland Islands",
      "iso3": "FLK",
      "phoneCode": "500",
      "capital": "Stanley",
      "currency": "FKP",
      "mmsi": "740",
      "id": "FK",
      "ioc": null,
      "simop": null
    },
    {
      "name": "Faroe Islands",
      "iso3": "FRO",
      "phoneCode": "298",
      "capital": "Torshavn",
      "currency": "DKK",
      "mmsi": null,
      "id": "FO",
      "ioc": "FAI",
      "simop": null
    },
    {
      "name": "Fiji Islands",
      "iso3": "FJI",
      "phoneCode": "679",
      "capital": "Suva",
      "currency": "FJD",
      "mmsi": "520",
      "id": "FJ",
      "ioc": "FIJ",
      "simop": "FIJ"
    },
    {
      "name": "Finland",
      "iso3": "FIN",
      "phoneCode": "358",
      "capital": "Helsinki",
      "currency": "EUR",
      "mmsi": "230",
      "id": "FI",
      "ioc": "FIN",
      "simop": "FIN"
    },
    {
      "name": "France",
      "iso3": "FRA",
      "phoneCode": "33",
      "capital": "Paris",
      "currency": "EUR",
      "mmsi": "226, 227, 228, 501, 607, 618, 635",
      "id": "FR",
      "ioc": "FRA",
      "simop": "FCE, FRN, PER"
    },
    {
      "name": "French Guiana",
      "iso3": "GUF",
      "phoneCode": "594",
      "capital": "Cayenne",
      "currency": "EUR",
      "mmsi": "745",
      "id": "GF",
      "ioc": null,
      "simop": null
    },
    {
      "name": "French Polynesia",
      "iso3": "PYF",
      "phoneCode": "689",
      "capital": "Papeete",
      "currency": "XPF",
      "mmsi": "546",
      "id": "PF",
      "ioc": null,
      "simop": "PYF"
    },
    {
      "name": "French Southern Territories",
      "iso3": "ATF",
      "phoneCode": null,
      "capital": "Port-aux-Francais",
      "currency": "EUR",
      "mmsi": null,
      "id": "TF",
      "ioc": null,
      "simop": null
    },
    {
      "name": "Gabon",
      "iso3": "GAB",
      "phoneCode": "241",
      "capital": "Libreville",
      "currency": "XAF",
      "mmsi": "626",
      "id": "GA",
      "ioc": "GAB",
      "simop": "GAB"
    },
    {
      "name": "Gambia The",
      "iso3": "GMB",
      "phoneCode": "220",
      "capital": "Banjul",
      "currency": "GMD",
      "mmsi": "629",
      "id": "GM",
      "ioc": "GAM",
      "simop": "GMB"
    },
    {
      "name": "Georgia",
      "iso3": "GEO",
      "phoneCode": "995",
      "capital": "Tbilisi",
      "currency": "GEL",
      "mmsi": "213",
      "id": "GE",
      "ioc": "GEO",
      "simop": "GGI"
    },
    {
      "name": "Germany",
      "iso3": "DEU",
      "phoneCode": "49",
      "capital": "Berlin",
      "currency": "EUR",
      "mmsi": "211, 218",
      "id": "DE",
      "ioc": "GER",
      "simop": "FRG"
    },
    {
      "name": "Ghana",
      "iso3": "GHA",
      "phoneCode": "233",
      "capital": "Accra",
      "currency": "GHS",
      "mmsi": "627",
      "id": "GH",
      "ioc": "GHA",
      "simop": "GNA"
    },
    {
      "name": "Gibraltar",
      "iso3": "GIB",
      "phoneCode": "350",
      "capital": "Gibraltar",
      "currency": "GIP",
      "mmsi": "236",
      "id": "GI",
      "ioc": null,
      "simop": "GIB"
    },
    {
      "name": "Greece",
      "iso3": "GRC",
      "phoneCode": "30",
      "capital": "Athens",
      "currency": "EUR",
      "mmsi": "238, 240, 241",
      "id": "GR",
      "ioc": "GRE",
      "simop": "GRE, YUN\n"
    },
    {
      "name": "Greenland",
      "iso3": "GRL",
      "phoneCode": "299",
      "capital": "Nuuk",
      "currency": "DKK",
      "mmsi": "331",
      "id": "GL",
      "ioc": null,
      "simop": null
    },
    {
      "name": "Grenada",
      "iso3": "GRD",
      "phoneCode": "+1-473",
      "capital": "St. George's",
      "currency": "XCD",
      "mmsi": "330",
      "id": "GD",
      "ioc": "GRN",
      "simop": null
    },
    {
      "name": "Guadeloupe",
      "iso3": "GLP",
      "phoneCode": "590",
      "capital": "Basse-Terre",
      "currency": "EUR",
      "mmsi": "329",
      "id": "GP",
      "ioc": null,
      "simop": "GUP"
    },
    {
      "name": "Guam",
      "iso3": "GUM",
      "phoneCode": "+1-671",
      "capital": "Hagatna",
      "currency": "USD",
      "mmsi": null,
      "id": "GU",
      "ioc": "GUM",
      "simop": "GUA"
    },
    {
      "name": "Guatemala",
      "iso3": "GTM",
      "phoneCode": "502",
      "capital": "Guatemala City",
      "currency": "GTQ",
      "mmsi": "332",
      "id": "GT",
      "ioc": "GUA",
      "simop": null
    },
    {
      "name": "Guernsey and Alderney",
      "iso3": "GGY",
      "phoneCode": "+44-1481",
      "capital": "St Peter Port",
      "currency": "GBP",
      "mmsi": null,
      "id": "GG",
      "ioc": "GCI",
      "simop": null
    },
    {
      "name": "Guinea",
      "iso3": "GIN",
      "phoneCode": "224",
      "capital": "Conakry",
      "currency": "GNF",
      "mmsi": "632",
      "id": "GN",
      "ioc": "GUI",
      "simop": "GUI"
    },
    {
      "name": "Guinea-Bissau",
      "iso3": "GNB",
      "phoneCode": "245",
      "capital": "Bissau",
      "currency": "XOF",
      "mmsi": "630",
      "id": "GW",
      "ioc": "GBS",
      "simop": null
    },
    {
      "name": "Guyana",
      "iso3": "GUY",
      "phoneCode": "592",
      "capital": "Georgetown",
      "currency": "GYD",
      "mmsi": "750",
      "id": "GY",
      "ioc": "GUY",
      "simop": null
    },
    {
      "name": "Haiti",
      "iso3": "HTI",
      "phoneCode": "509",
      "capital": "Port-au-Prince",
      "currency": "HTG",
      "mmsi": "336",
      "id": "HT",
      "ioc": "HAI",
      "simop": "HTI"
    },
    {
      "name": "Heard and McDonald Islands",
      "iso3": "HMD",
      "phoneCode": " ",
      "capital": null,
      "currency": "AUD",
      "mmsi": null,
      "id": "HM",
      "ioc": null,
      "simop": null
    },
    {
      "name": "Honduras",
      "iso3": "HND",
      "phoneCode": "504",
      "capital": "Tegucigalpa",
      "currency": "HNL",
      "mmsi": "334",
      "id": "HN",
      "ioc": "HON",
      "simop": "HON"
    },
    {
      "name": "Hong Kong S.A.R.",
      "iso3": "HKG",
      "phoneCode": "852",
      "capital": "Hong Kong",
      "currency": "HKD",
      "mmsi": "477",
      "id": "HK",
      "ioc": "HKG",
      "simop": "HKG"
    },
    {
      "name": "Hungary",
      "iso3": "HUN",
      "phoneCode": "36",
      "capital": "Budapest",
      "currency": "HUF",
      "mmsi": "243",
      "id": "HU",
      "ioc": "HUN",
      "simop": "HGR, HUN"
    },
    {
      "name": "Iceland",
      "iso3": "ISL",
      "phoneCode": "354",
      "capital": "Reykjavik",
      "currency": "ISK",
      "mmsi": "251",
      "id": "IS",
      "ioc": "ISL",
      "simop": "ICE"
    },
    {
      "name": "India",
      "iso3": "IND",
      "phoneCode": "91",
      "capital": "New Delhi",
      "currency": "INR",
      "mmsi": "419",
      "id": "IN",
      "ioc": "IND",
      "simop": "IND"
    },
    {
      "name": "Indonesia",
      "iso3": "IDN",
      "phoneCode": "62",
      "capital": "Jakarta",
      "currency": "IDR",
      "mmsi": "525",
      "id": "ID",
      "ioc": "INA",
      "simop": "INA"
    },
    {
      "name": "Iran",
      "iso3": "IRN",
      "phoneCode": "98",
      "capital": "Tehran",
      "currency": "IRR",
      "mmsi": "422",
      "id": "IR",
      "ioc": "IRI",
      "simop": "IRN"
    },
    {
      "name": "Iraq",
      "iso3": "IRQ",
      "phoneCode": "964",
      "capital": "Baghdad",
      "currency": "IQD",
      "mmsi": "425",
      "id": "IQ",
      "ioc": "IRQ",
      "simop": "IRQ"
    },
    {
      "name": "Ireland",
      "iso3": "IRL",
      "phoneCode": "353",
      "capital": "Dublin",
      "currency": "EUR",
      "mmsi": "250",
      "id": "IE",
      "ioc": "IRL",
      "simop": "IRA"
    },
    {
      "name": "Israel",
      "iso3": "ISR",
      "phoneCode": "972",
      "capital": "Jerusalem",
      "currency": "ILS",
      "mmsi": "428",
      "id": "IL",
      "ioc": "ISR",
      "simop": "ISR"
    },
    {
      "name": "Italy",
      "iso3": "ITA",
      "phoneCode": "39",
      "capital": "Rome",
      "currency": "EUR",
      "mmsi": "247",
      "id": "IT",
      "ioc": "ITA",
      "simop": "ITA"
    },
    {
      "name": "Jamaica",
      "iso3": "JAM",
      "phoneCode": "+1-876",
      "capital": "Kingston",
      "currency": "JMD",
      "mmsi": "339",
      "id": "JM",
      "ioc": "JAM",
      "simop": "JAM"
    },
    {
      "name": "Japan",
      "iso3": "JPN",
      "phoneCode": "81",
      "capital": "Tokyo",
      "currency": "JPY",
      "mmsi": "431, 432",
      "id": "JP",
      "ioc": "JPN",
      "simop": "JPN"
    },
    {
      "name": "Jersey",
      "iso3": "JEY",
      "phoneCode": "+44-1534",
      "capital": "Saint Helier",
      "currency": "GBP",
      "mmsi": null,
      "id": "JE",
      "ioc": "JCI",
      "simop": "NJE"
    },
    {
      "name": "Jordan",
      "iso3": "JOR",
      "phoneCode": "962",
      "capital": "Amman",
      "currency": "JOD",
      "mmsi": "438",
      "id": "JO",
      "ioc": "JOR",
      "simop": "JOR"
    },
    {
      "name": "Kazakhstan",
      "iso3": "KAZ",
      "phoneCode": "7",
      "capital": "Astana",
      "currency": "KZT",
      "mmsi": "436",
      "id": "KZ",
      "ioc": "KAZ",
      "simop": "KAZ"
    },
    {
      "name": "Kenya",
      "iso3": "KEN",
      "phoneCode": "254",
      "capital": "Nairobi",
      "currency": "KES",
      "mmsi": "634",
      "id": "KE",
      "ioc": "KEN",
      "simop": null
    },
    {
      "name": "Kiribati",
      "iso3": "KIR",
      "phoneCode": "686",
      "capital": "Tarawa",
      "currency": "AUD",
      "mmsi": "529",
      "id": "KI",
      "ioc": "KIR",
      "simop": "KIR"
    },
    {
      "name": "Korea North",
      "iso3": "PRK",
      "phoneCode": "850",
      "capital": "Pyongyang",
      "currency": "KPW",
      "mmsi": "445",
      "id": "KP",
      "ioc": "PRK",
      "simop": "DPR, KUT"
    },
    {
      "name": "Korea South",
      "iso3": "KOR",
      "phoneCode": "82",
      "capital": "Seoul",
      "currency": "KRW",
      "mmsi": "440, 441",
      "id": "KR",
      "ioc": "KOR",
      "simop": "KOR"
    },
    {
      "name": "Kuwait",
      "iso3": "KWT",
      "phoneCode": "965",
      "capital": "Kuwait City",
      "currency": "KWD",
      "mmsi": "447",
      "id": "KW",
      "ioc": "KUW",
      "simop": "KWI"
    },
    {
      "name": "Kyrgyzstan",
      "iso3": "KGZ",
      "phoneCode": "996",
      "capital": "Bishkek",
      "currency": "KGS",
      "mmsi": "451",
      "id": "KG",
      "ioc": "KGZ",
      "simop": null
    },
    {
      "name": "Laos",
      "iso3": "LAO",
      "phoneCode": "856",
      "capital": "Vientiane",
      "currency": "LAK",
      "mmsi": "531",
      "id": "LA",
      "ioc": "LAO",
      "simop": "LAO"
    },
    {
      "name": "Latvia",
      "iso3": "LVA",
      "phoneCode": "371",
      "capital": "Riga",
      "currency": "EUR",
      "mmsi": "275",
      "id": "LV",
      "ioc": "LAT",
      "simop": null
    },
    {
      "name": "Lebanon",
      "iso3": "LBN",
      "phoneCode": "961",
      "capital": "Beirut",
      "currency": "LBP",
      "mmsi": "450",
      "id": "LB",
      "ioc": "LIB",
      "simop": "LEB"
    },
    {
      "name": "Lesotho",
      "iso3": "LSO",
      "phoneCode": "266",
      "capital": "Maseru",
      "currency": "LSL",
      "mmsi": "644",
      "id": "LS",
      "ioc": "LES",
      "simop": "LS"
    },
    {
      "name": "Liberia",
      "iso3": "LBR",
      "phoneCode": "231",
      "capital": "Monrovia",
      "currency": "LRD",
      "mmsi": "636, 637",
      "id": "LR",
      "ioc": "LBR",
      "simop": "LBR"
    },
    {
      "name": "Libya",
      "iso3": "LBY",
      "phoneCode": "218",
      "capital": "Tripolis",
      "currency": "LYD",
      "mmsi": "642",
      "id": "LY",
      "ioc": "LBA",
      "simop": "LIB"
    },
    {
      "name": "Liechtenstein",
      "iso3": "LIE",
      "phoneCode": "423",
      "capital": "Vaduz",
      "currency": "CHF",
      "mmsi": null,
      "id": "LI",
      "ioc": "LIE",
      "simop": null
    },
    {
      "name": "Lithuania",
      "iso3": "LTU",
      "phoneCode": "370",
      "capital": "Vilnius",
      "currency": "LTL",
      "mmsi": "277",
      "id": "LT",
      "ioc": "LTU",
      "simop": "LIT"
    },
    {
      "name": "Luxembourg",
      "iso3": "LUX",
      "phoneCode": "352",
      "capital": "Luxembourg",
      "currency": "EUR",
      "mmsi": "253",
      "id": "LU",
      "ioc": "LUX",
      "simop": "LUX"
    },
    {
      "name": "Macau S.A.R.",
      "iso3": "MAC",
      "phoneCode": "853",
      "capital": "Macao",
      "currency": "MOP",
      "mmsi": "453",
      "id": "MO",
      "ioc": "MAC",
      "simop": null
    },
    {
      "name": "Macedonia",
      "iso3": "MKD",
      "phoneCode": "389",
      "capital": "Skopje",
      "currency": "MKD",
      "mmsi": "274",
      "id": "MK",
      "ioc": "MKD",
      "simop": null
    },
    {
      "name": "Madagascar",
      "iso3": "MDG",
      "phoneCode": "261",
      "capital": "Antananarivo",
      "currency": "MGA",
      "mmsi": "647",
      "id": "MG",
      "ioc": "MAD",
      "simop": "MDC"
    },
    {
      "name": "Malawi",
      "iso3": "MWI",
      "phoneCode": "265",
      "capital": "Lilongwe",
      "currency": "MWK",
      "mmsi": "655",
      "id": "MW",
      "ioc": "MAW",
      "simop": "MLI"
    },
    {
      "name": "Malaysia",
      "iso3": "MYS",
      "phoneCode": "60",
      "capital": "Kuala Lumpur",
      "currency": "MYR",
      "mmsi": "533",
      "id": "MY",
      "ioc": "MAS",
      "simop": "MAL, SBH, SRW"
    },
    {
      "name": "Maldives",
      "iso3": "MDV",
      "phoneCode": "960",
      "capital": "Male",
      "currency": "MVR",
      "mmsi": "455",
      "id": "MV",
      "ioc": "MDV",
      "simop": "MLD"
    },
    {
      "name": "Mali",
      "iso3": "MLI",
      "phoneCode": "223",
      "capital": "Bamako",
      "currency": "XOF",
      "mmsi": "649",
      "id": "ML",
      "ioc": "MLI",
      "simop": null
    },
    {
      "name": "Malta",
      "iso3": "MLT",
      "phoneCode": "356",
      "capital": "Valletta",
      "currency": "EUR",
      "mmsi": "215, 229, 248, 249, 256",
      "id": "MT",
      "ioc": "MLT",
      "simop": "MLT, MTS"
    },
    {
      "name": "Man (Isle of)",
      "iso3": "IMN",
      "phoneCode": "+44-1624",
      "capital": "Douglas, Isle of Man",
      "currency": "GBP",
      "mmsi": null,
      "id": "IM",
      "ioc": null,
      "simop": "IOM"
    },
    {
      "name": "Marshall Islands",
      "iso3": "MHL",
      "phoneCode": "692",
      "capital": "Majuro",
      "currency": "USD",
      "mmsi": "538",
      "id": "MH",
      "ioc": "MHL",
      "simop": "MIS"
    },
    {
      "name": "Martinique",
      "iso3": "MTQ",
      "phoneCode": "596",
      "capital": "Fort-de-France",
      "currency": "EUR",
      "mmsi": "347",
      "id": "MQ",
      "ioc": null,
      "simop": null
    },
    {
      "name": "Mauritania",
      "iso3": "MRT",
      "phoneCode": "222",
      "capital": "Nouakchott",
      "currency": "MRO",
      "mmsi": "654",
      "id": "MR",
      "ioc": "MTN",
      "simop": "MRT"
    },
    {
      "name": "Mauritius",
      "iso3": "MUS",
      "phoneCode": "230",
      "capital": "Port Louis",
      "currency": "MUR",
      "mmsi": "645",
      "id": "MU",
      "ioc": "MRI",
      "simop": "MAU"
    },
    {
      "name": "Mayotte",
      "iso3": "MYT",
      "phoneCode": "262",
      "capital": "Mamoudzou",
      "currency": "EUR",
      "mmsi": null,
      "id": "YT",
      "ioc": null,
      "simop": "MAY"
    },
    {
      "name": "Mexico",
      "iso3": "MEX",
      "phoneCode": "52",
      "capital": "Mexico City",
      "currency": "MXN",
      "mmsi": "345",
      "id": "MX",
      "ioc": "MEX",
      "simop": "MEX"
    },
    {
      "name": "Micronesia",
      "iso3": "FSM",
      "phoneCode": "691",
      "capital": "Palikir",
      "currency": "USD",
      "mmsi": "510",
      "id": "FM",
      "ioc": "FSM",
      "simop": "MIC"
    },
    {
      "name": "Moldova",
      "iso3": "MDA",
      "phoneCode": "373",
      "capital": "Chisinau",
      "currency": "MDL",
      "mmsi": "214",
      "id": "MD",
      "ioc": "MDA",
      "simop": null
    },
    {
      "name": "Monaco",
      "iso3": "MCO",
      "phoneCode": "377",
      "capital": "Monaco",
      "currency": "EUR",
      "mmsi": "254",
      "id": "MC",
      "ioc": "MON",
      "simop": null
    },
    {
      "name": "Mongolia",
      "iso3": "MNG",
      "phoneCode": "976",
      "capital": "Ulan Bator",
      "currency": "MNT",
      "mmsi": "457",
      "id": "MN",
      "ioc": "MGL",
      "simop": "MOL"
    },
    {
      "name": "Montenegro",
      "iso3": "MNE",
      "phoneCode": "382",
      "capital": "Podgorica",
      "currency": "EUR",
      "mmsi": "262",
      "id": "ME",
      "ioc": "MNE",
      "simop": "MNG"
    },
    {
      "name": "Montserrat",
      "iso3": "MSR",
      "phoneCode": "+1-664",
      "capital": "Plymouth",
      "currency": "XCD",
      "mmsi": "348",
      "id": "MS",
      "ioc": null,
      "simop": null
    },
    {
      "name": "Morocco",
      "iso3": "MAR",
      "phoneCode": "212",
      "capital": "Rabat",
      "currency": "MAD",
      "mmsi": "242",
      "id": "MA",
      "ioc": "MAR",
      "simop": "MRC"
    },
    {
      "name": "Mozambique",
      "iso3": "MOZ",
      "phoneCode": "258",
      "capital": "Maputo",
      "currency": "MZN",
      "mmsi": "650",
      "id": "MZ",
      "ioc": "MOZ",
      "simop": "MOZ"
    },
    {
      "name": "Myanmar",
      "iso3": "MMR",
      "phoneCode": "95",
      "capital": "Nay Pyi Taw",
      "currency": "MMK",
      "mmsi": "506",
      "id": "MM",
      "ioc": "MYA",
      "simop": "MYA"
    },
    {
      "name": "Namibia",
      "iso3": "NAM",
      "phoneCode": "264",
      "capital": "Windhoek",
      "currency": "NAD",
      "mmsi": "659",
      "id": "NA",
      "ioc": "NAM",
      "simop": "NAM"
    },
    {
      "name": "Nauru",
      "iso3": "NRU",
      "phoneCode": "674",
      "capital": "Yaren",
      "currency": "AUD",
      "mmsi": "544",
      "id": "NR",
      "ioc": "NRU",
      "simop": "NRU"
    },
    {
      "name": "Nepal",
      "iso3": "NPL",
      "phoneCode": "977",
      "capital": "Kathmandu",
      "currency": "NPR",
      "mmsi": "459",
      "id": "NP",
      "ioc": "NEP",
      "simop": null
    },
    {
      "name": "Netherlands Antilles",
      "iso3": "ANT",
      "phoneCode": null,
      "capital": null,
      "currency": null,
      "mmsi": null,
      "id": "AN",
      "ioc": null,
      "simop": "DUT"
    },
    {
      "name": "Netherlands The",
      "iso3": "NLD",
      "phoneCode": "31",
      "capital": "Amsterdam",
      "currency": "EUR",
      "mmsi": "244, 245, 246, 306, ",
      "id": "NL",
      "ioc": "NED",
      "simop": "NED"
    },
    {
      "name": "New Caledonia",
      "iso3": "NCL",
      "phoneCode": "687",
      "capital": "Noumea",
      "currency": "XPF",
      "mmsi": "540",
      "id": "NC",
      "ioc": null,
      "simop": "NCL"
    },
    {
      "name": "New Zealand",
      "iso3": "NZL",
      "phoneCode": "64",
      "capital": "Wellington",
      "currency": "NZD",
      "mmsi": "512",
      "id": "NZ",
      "ioc": "NZL",
      "simop": "NZL"
    },
    {
      "name": "Nicaragua",
      "iso3": "NIC",
      "phoneCode": "505",
      "capital": "Managua",
      "currency": "NIO",
      "mmsi": "350",
      "id": "NI",
      "ioc": "NCA",
      "simop": "NCG"
    },
    {
      "name": "Niger",
      "iso3": "NER",
      "phoneCode": "227",
      "capital": "Niamey",
      "currency": "XOF",
      "mmsi": "656",
      "id": "NE",
      "ioc": "NIG",
      "simop": null
    },
    {
      "name": "Nigeria",
      "iso3": "NGA",
      "phoneCode": "234",
      "capital": "Abuja",
      "currency": "NGN",
      "mmsi": "657",
      "id": "NG",
      "ioc": "NGR",
      "simop": "NIG"
    },
    {
      "name": "Niue",
      "iso3": "NIU",
      "phoneCode": "683",
      "capital": "Alofi",
      "currency": "NZD",
      "mmsi": "542",
      "id": "NU",
      "ioc": null,
      "simop": "NIU"
    },
    {
      "name": "Norfolk Island",
      "iso3": "NFK",
      "phoneCode": "672",
      "capital": "Kingston",
      "currency": "AUD",
      "mmsi": null,
      "id": "NF",
      "ioc": null,
      "simop": null
    },
    {
      "name": "Northern Mariana Islands",
      "iso3": "MNP",
      "phoneCode": "+1-670",
      "capital": "Saipan",
      "currency": "USD",
      "mmsi": "536",
      "id": "MP",
      "ioc": null,
      "simop": null
    },
    {
      "name": "Norway",
      "iso3": "NOR",
      "phoneCode": "47",
      "capital": "Oslo",
      "currency": "NOK",
      "mmsi": "257, 258, 259",
      "id": "NO",
      "ioc": "NOR",
      "simop": "NOR"
    },
    {
      "name": "Oman",
      "iso3": "OMN",
      "phoneCode": "968",
      "capital": "Muscat",
      "currency": "OMR",
      "mmsi": "461",
      "id": "OM",
      "ioc": "OMA",
      "simop": "OMN, OMA"
    },
    {
      "name": "Pakistan",
      "iso3": "PAK",
      "phoneCode": "92",
      "capital": "Islamabad",
      "currency": "PKR",
      "mmsi": "463",
      "id": "PK",
      "ioc": "PAK",
      "simop": "PAK"
    },
    {
      "name": "Palau",
      "iso3": "PLW",
      "phoneCode": "680",
      "capital": "Melekeok",
      "currency": "USD",
      "mmsi": "511",
      "id": "PW",
      "ioc": "PLW",
      "simop": null
    },
    {
      "name": "Palestinian Territory Occupied",
      "iso3": "PSE",
      "phoneCode": "970",
      "capital": "East Jerusalem",
      "currency": "ILS",
      "mmsi": "443",
      "id": "PS",
      "ioc": "PLE",
      "simop": null
    },
    {
      "name": "Panama",
      "iso3": "PAN",
      "phoneCode": "507",
      "capital": "Panama City",
      "currency": "PAB",
      "mmsi": "351, 351, 353, 354, 355, 356, 357, 370, 371, 372, 373, 374",
      "id": "PA",
      "ioc": "PAN",
      "simop": "PAN"
    },
    {
      "name": "Papua New Guinea",
      "iso3": "PNG",
      "phoneCode": "675",
      "capital": "Port Moresby",
      "currency": "PGK",
      "mmsi": "553",
      "id": "PG",
      "ioc": "PNG",
      "simop": "PNG"
    },
    {
      "name": "Paraguay",
      "iso3": "PRY",
      "phoneCode": "595",
      "capital": "Asuncion",
      "currency": "PYG",
      "mmsi": "755",
      "id": "PY",
      "ioc": "PAR",
      "simop": "PRG"
    },
    {
      "name": "Peru",
      "iso3": "PER",
      "phoneCode": "51",
      "capital": "Lima",
      "currency": "PEN",
      "mmsi": "760",
      "id": "PE",
      "ioc": "PER",
      "simop": "PRU"
    },
    {
      "name": "Philippines",
      "iso3": "PHL",
      "phoneCode": "63",
      "capital": "Manila",
      "currency": "PHP",
      "mmsi": "548",
      "id": "PH",
      "ioc": "PHI",
      "simop": "PHI"
    },
    {
      "name": "Pitcairn Island",
      "iso3": "PCN",
      "phoneCode": "870",
      "capital": "Adamstown",
      "currency": "NZD",
      "mmsi": "555",
      "id": "PN",
      "ioc": null,
      "simop": null
    },
    {
      "name": "Poland",
      "iso3": "POL",
      "phoneCode": "48",
      "capital": "Warsaw",
      "currency": "PLN",
      "mmsi": "261",
      "id": "PL",
      "ioc": "POL",
      "simop": "POL"
    },
    {
      "name": "Portugal",
      "iso3": "PRT",
      "phoneCode": "351",
      "capital": "Lisbon",
      "currency": "EUR",
      "mmsi": "204, 255, 263",
      "id": "PT",
      "ioc": "POR",
      "simop": "PTG, POR"
    },
    {
      "name": "Puerto Rico",
      "iso3": "PRI",
      "phoneCode": "+1-787 and 1-939",
      "capital": "San Juan",
      "currency": "USD",
      "mmsi": "358",
      "id": "PR",
      "ioc": "PUR",
      "simop": "PRI"
    },
    {
      "name": "Qatar",
      "iso3": "QAT",
      "phoneCode": "974",
      "capital": "Doha",
      "currency": "QAR",
      "mmsi": "466",
      "id": "QA",
      "ioc": "QAT",
      "simop": "QAT"
    },
    {
      "name": "Reunion",
      "iso3": "REU",
      "phoneCode": "262",
      "capital": "Saint-Denis",
      "currency": "EUR",
      "mmsi": "660",
      "id": "RE",
      "ioc": null,
      "simop": null
    },
    {
      "name": "Romania",
      "iso3": "ROU",
      "phoneCode": "40",
      "capital": "Bucharest",
      "currency": "RON",
      "mmsi": "264",
      "id": "RO",
      "ioc": "ROU",
      "simop": "ROM"
    },
    {
      "name": "Russia",
      "iso3": "RUS",
      "phoneCode": "7",
      "capital": "Moscow",
      "currency": "RUB",
      "mmsi": "273",
      "id": "RU",
      "ioc": "RUS",
      "simop": "RUS"
    },
    {
      "name": "Rwanda",
      "iso3": "RWA",
      "phoneCode": "250",
      "capital": "Kigali",
      "currency": "RWF",
      "mmsi": "661",
      "id": "RW",
      "ioc": "RWA",
      "simop": null
    },
    {
      "name": "Saint Helena",
      "iso3": "SHN",
      "phoneCode": "290",
      "capital": "Jamestown",
      "currency": "SHP",
      "mmsi": "665",
      "id": "SH",
      "ioc": null,
      "simop": null
    },
    {
      "name": "Saint Kitts And Nevis",
      "iso3": "KNA",
      "phoneCode": "+1-869",
      "capital": "Basseterre",
      "currency": "XCD",
      "mmsi": "341",
      "id": "KN",
      "ioc": "SKN",
      "simop": "STK"
    },
    {
      "name": "Saint Lucia",
      "iso3": "LCA",
      "phoneCode": "+1-758",
      "capital": "Castries",
      "currency": "XCD",
      "mmsi": "343",
      "id": "LC",
      "ioc": "LCA",
      "simop": null
    },
    {
      "name": "Saint Pierre and Miquelon",
      "iso3": "SPM",
      "phoneCode": "508",
      "capital": "Saint-Pierre",
      "currency": "EUR",
      "mmsi": "361",
      "id": "PM",
      "ioc": null,
      "simop": null
    },
    {
      "name": "Saint Vincent And The Grenadines",
      "iso3": "VCT",
      "phoneCode": "+1-784",
      "capital": "Kingstown",
      "currency": "XCD",
      "mmsi": "375, 376, 377",
      "id": "VC",
      "ioc": "VIN",
      "simop": "STV"
    },
    {
      "name": "Saint-Barthelemy",
      "iso3": "BLM",
      "phoneCode": "590",
      "capital": "Gustavia",
      "currency": "EUR",
      "mmsi": null,
      "id": "BL",
      "ioc": null,
      "simop": null
    },
    {
      "name": "Saint-Martin (French part)",
      "iso3": "MAF",
      "phoneCode": "590",
      "capital": "Marigot",
      "currency": "EUR",
      "mmsi": null,
      "id": "MF",
      "ioc": null,
      "simop": null
    },
    {
      "name": "Samoa",
      "iso3": "WSM",
      "phoneCode": "685",
      "capital": "Apia",
      "currency": "WST",
      "mmsi": "561",
      "id": "WS",
      "ioc": "SAM",
      "simop": "SAM"
    },
    {
      "name": "San Marino",
      "iso3": "SMR",
      "phoneCode": "378",
      "capital": "San Marino",
      "currency": "EUR",
      "mmsi": "268",
      "id": "SM",
      "ioc": "SMR",
      "simop": null
    },
    {
      "name": "Sao Tome and Principe",
      "iso3": "STP",
      "phoneCode": "239",
      "capital": "Sao Tome",
      "currency": "STD",
      "mmsi": "668",
      "id": "ST",
      "ioc": "STP",
      "simop": "SAO"
    },
    {
      "name": "Saudi Arabia",
      "iso3": "SAU",
      "phoneCode": "966",
      "capital": "Riyadh",
      "currency": "SAR",
      "mmsi": "403",
      "id": "SA",
      "ioc": "KSA",
      "simop": "SAR"
    },
    {
      "name": "Senegal",
      "iso3": "SEN",
      "phoneCode": "221",
      "capital": "Dakar",
      "currency": "XOF",
      "mmsi": "663",
      "id": "SN",
      "ioc": "SEN",
      "simop": "SEN"
    },
    {
      "name": "Serbia",
      "iso3": "SRB",
      "phoneCode": "381",
      "capital": "Belgrade",
      "currency": "RSD",
      "mmsi": "279",
      "id": "RS",
      "ioc": "SRB",
      "simop": "SER"
    },
    {
      "name": "Seychelles",
      "iso3": "SYC",
      "phoneCode": "248",
      "capital": "Victoria",
      "currency": "SCR",
      "mmsi": "664",
      "id": "SC",
      "ioc": "SEY",
      "simop": "SEY"
    },
    {
      "name": "Sierra Leone",
      "iso3": "SLE",
      "phoneCode": "232",
      "capital": "Freetown",
      "currency": "SLL",
      "mmsi": "667",
      "id": "SL",
      "ioc": "SLE",
      "simop": "SIL"
    },
    {
      "name": "Singapore",
      "iso3": "SGP",
      "phoneCode": "65",
      "capital": "Singapur",
      "currency": "SGD",
      "mmsi": "563, 564, 565, 566",
      "id": "SG",
      "ioc": "SIN",
      "simop": "SIN"
    },
    {
      "name": "Slovakia",
      "iso3": "SVK",
      "phoneCode": "421",
      "capital": "Bratislava",
      "currency": "EUR",
      "mmsi": "267",
      "id": "SK",
      "ioc": "SVK",
      "simop": "SLV"
    },
    {
      "name": "Slovenia",
      "iso3": "SVN",
      "phoneCode": "386",
      "capital": "Ljubljana",
      "currency": "EUR",
      "mmsi": "278",
      "id": "SI",
      "ioc": "SLO",
      "simop": "SLO"
    },
    {
      "name": "Solomon Islands",
      "iso3": "SLB",
      "phoneCode": "677",
      "capital": "Honiara",
      "currency": "SBD",
      "mmsi": "557",
      "id": "SB",
      "ioc": "SOL",
      "simop": "SIS"
    },
    {
      "name": "Somalia",
      "iso3": "SOM",
      "phoneCode": "252",
      "capital": "Mogadishu",
      "currency": "SOS",
      "mmsi": "666",
      "id": "SO",
      "ioc": "SOM",
      "simop": "SOM"
    },
    {
      "name": "South Africa",
      "iso3": "ZAF",
      "phoneCode": "27",
      "capital": "Pretoria",
      "currency": "ZAR",
      "mmsi": "601",
      "id": "ZA",
      "ioc": "RSA",
      "simop": "SAF"
    },
    {
      "name": "South Georgia",
      "iso3": "SGS",
      "phoneCode": null,
      "capital": "Grytviken",
      "currency": "GBP",
      "mmsi": null,
      "id": "GS",
      "ioc": null,
      "simop": null
    },
    {
      "name": "South Sudan",
      "iso3": "SSD",
      "phoneCode": "211",
      "capital": "Juba",
      "currency": "SSP",
      "mmsi": "638",
      "id": "SS",
      "ioc": "SSD",
      "simop": null
    },
    {
      "name": "Spain",
      "iso3": "ESP",
      "phoneCode": "34",
      "capital": "Madrid",
      "currency": "EUR",
      "mmsi": "224, 225",
      "id": "ES",
      "ioc": "ESP",
      "simop": "SPN"
    },
    {
      "name": "Sri Lanka",
      "iso3": "LKA",
      "phoneCode": "94",
      "capital": "Colombo",
      "currency": "LKR",
      "mmsi": "417",
      "id": "LK",
      "ioc": "SRI",
      "simop": "SLK"
    },
    {
      "name": "Sudan",
      "iso3": "SDN",
      "phoneCode": "249",
      "capital": "Khartoum",
      "currency": "SDG",
      "mmsi": "662",
      "id": "SD",
      "ioc": "SUD",
      "simop": "SDN"
    },
    {
      "name": "Suriname",
      "iso3": "SUR",
      "phoneCode": "597",
      "capital": "Paramaribo",
      "currency": "SRD",
      "mmsi": "765",
      "id": "SR",
      "ioc": "SUR",
      "simop": "SUR"
    },
    {
      "name": "Svalbard And Jan Mayen Islands",
      "iso3": "SJM",
      "phoneCode": "47",
      "capital": "Longyearbyen",
      "currency": "NOK",
      "mmsi": null,
      "id": "SJ",
      "ioc": null,
      "simop": null
    },
    {
      "name": "Swaziland",
      "iso3": "SWZ",
      "phoneCode": "268",
      "capital": "Mbabane",
      "currency": "SZL",
      "mmsi": null,
      "id": "SZ",
      "ioc": "SWZ",
      "simop": "SWZ"
    },
    {
      "name": "Sweden",
      "iso3": "SWE",
      "phoneCode": "46",
      "capital": "Stockholm",
      "currency": "SEK",
      "mmsi": "265, 266",
      "id": "SE",
      "ioc": "SWE",
      "simop": "SWE"
    },
    {
      "name": "Switzerland",
      "iso3": "CHE",
      "phoneCode": "41",
      "capital": "Berne",
      "currency": "CHF",
      "mmsi": "269",
      "id": "CH",
      "ioc": "SUI",
      "simop": "SWI"
    },
    {
      "name": "Syria",
      "iso3": "SYR",
      "phoneCode": "963",
      "capital": "Damascus",
      "currency": "SYP",
      "mmsi": "468",
      "id": "SY",
      "ioc": "SYR",
      "simop": "SYR"
    },
    {
      "name": "Taiwan",
      "iso3": "TWN",
      "phoneCode": "886",
      "capital": "Taipei",
      "currency": "TWD",
      "mmsi": "416",
      "id": "TW",
      "ioc": "TPE",
      "simop": "TWN"
    },
    {
      "name": "Tajikistan",
      "iso3": "TJK",
      "phoneCode": "992",
      "capital": "Dushanbe",
      "currency": "TJS",
      "mmsi": "472",
      "id": "TJ",
      "ioc": "TJK",
      "simop": null
    },
    {
      "name": "Tanzania",
      "iso3": "TZA",
      "phoneCode": "255",
      "capital": "Dodoma",
      "currency": "TZS",
      "mmsi": "673, 677",
      "id": "TZ",
      "ioc": "TAN",
      "simop": "TZN"
    },
    {
      "name": "Thailand",
      "iso3": "THA",
      "phoneCode": "66",
      "capital": "Bangkok",
      "currency": "THB",
      "mmsi": "567",
      "id": "TH",
      "ioc": "THA",
      "simop": "THL"
    },
    {
      "name": "Togo",
      "iso3": "TGO",
      "phoneCode": "228",
      "capital": "Lome",
      "currency": "XOF",
      "mmsi": "671",
      "id": "TG",
      "ioc": "TOG",
      "simop": "TOG"
    },
    {
      "name": "Tokelau",
      "iso3": "TKL",
      "phoneCode": "690",
      "capital": null,
      "currency": "NZD",
      "mmsi": null,
      "id": "TK",
      "ioc": null,
      "simop": null
    },
    {
      "name": "Tonga",
      "iso3": "TON",
      "phoneCode": "676",
      "capital": "Nuku'alofa",
      "currency": "TOP",
      "mmsi": "570",
      "id": "TO",
      "ioc": "TGA",
      "simop": "TON"
    },
    {
      "name": "Trinidad And Tobago",
      "iso3": "TTO",
      "phoneCode": "+1-868",
      "capital": "Port of Spain",
      "currency": "TTD",
      "mmsi": "362",
      "id": "TT",
      "ioc": "TTO",
      "simop": "TNT"
    },
    {
      "name": "Tunisia",
      "iso3": "TUN",
      "phoneCode": "216",
      "capital": "Tunis",
      "currency": "TND",
      "mmsi": "672",
      "id": "TN",
      "ioc": "TUN",
      "simop": "TUN"
    },
    {
      "name": "Turkey",
      "iso3": "TUR",
      "phoneCode": "90",
      "capital": "Ankara",
      "currency": "TRY",
      "mmsi": "271",
      "id": "TR",
      "ioc": "TUR",
      "simop": "TUR"
    },
    {
      "name": "Turkmenistan",
      "iso3": "TKM",
      "phoneCode": "993",
      "capital": "Ashgabat",
      "currency": "TMT",
      "mmsi": "434",
      "id": "TM",
      "ioc": "TKM",
      "simop": null
    },
    {
      "name": "Turks And Caicos Islands",
      "iso3": "TCA",
      "phoneCode": "+1-649",
      "capital": "Cockburn Town",
      "currency": "USD",
      "mmsi": "364",
      "id": "TC",
      "ioc": null,
      "simop": null
    },
    {
      "name": "Tuvalu",
      "iso3": "TUV",
      "phoneCode": "688",
      "capital": "Funafuti",
      "currency": "AUD",
      "mmsi": "572",
      "id": "TV",
      "ioc": "TUV",
      "simop": "TUV"
    },
    {
      "name": "Uganda",
      "iso3": "UGA",
      "phoneCode": "256",
      "capital": "Kampala",
      "currency": "UGX",
      "mmsi": "675",
      "id": "UG",
      "ioc": "UGA",
      "simop": "UGN"
    },
    {
      "name": "Ukraine",
      "iso3": "UKR",
      "phoneCode": "380",
      "capital": "Kiev",
      "currency": "UAH",
      "mmsi": "272",
      "id": "UA",
      "ioc": "UKR",
      "simop": "UKR"
    },
    {
      "name": "United Arab Emirates",
      "iso3": "ARE",
      "phoneCode": "971",
      "capital": "Abu Dhabi",
      "currency": "AED",
      "mmsi": "470, 471",
      "id": "AE",
      "ioc": "UAE",
      "simop": "UAE"
    },
    {
      "name": "United Kingdom",
      "iso3": "GBR",
      "phoneCode": "44",
      "capital": "London",
      "currency": "GBP",
      "mmsi": "232, 233, 234, 235, 608",
      "id": "GB",
      "ioc": "GBR",
      "simop": "UKG, GBR"
    },
    {
      "name": "United States",
      "iso3": "USA",
      "phoneCode": "1",
      "capital": "Washington",
      "currency": "USD",
      "mmsi": "303, 338, 366, 367, 368, 369",
      "id": "US",
      "ioc": "USA",
      "simop": "USA, US"
    },
    {
      "name": "United States Minor Outlying Islands",
      "iso3": "UMI",
      "phoneCode": "1",
      "capital": null,
      "currency": "USD",
      "mmsi": null,
      "id": "UM",
      "ioc": null,
      "simop": null
    },
    {
      "name": "Uruguay",
      "iso3": "URY",
      "phoneCode": "598",
      "capital": "Montevideo",
      "currency": "UYU",
      "mmsi": "770",
      "id": "UY",
      "ioc": "URU",
      "simop": "URU"
    },
    {
      "name": "Uzbekistan",
      "iso3": "UZB",
      "phoneCode": "998",
      "capital": "Tashkent",
      "currency": "UZS",
      "mmsi": "437",
      "id": "UZ",
      "ioc": "UZB",
      "simop": null
    },
    {
      "name": "Vanuatu",
      "iso3": "VUT",
      "phoneCode": "678",
      "capital": "Port Vila",
      "currency": "VUV",
      "mmsi": "576, 577",
      "id": "VU",
      "ioc": "VAN",
      "simop": "VAN"
    },
    {
      "name": "Vatican City State (Holy See)",
      "iso3": "VAT",
      "phoneCode": "379",
      "capital": "Vatican City",
      "currency": "EUR",
      "mmsi": "208",
      "id": "VA",
      "ioc": null,
      "simop": null
    },
    {
      "name": "Venezuela",
      "iso3": "VEN",
      "phoneCode": "58",
      "capital": "Caracas",
      "currency": "VEF",
      "mmsi": "775",
      "id": "VE",
      "ioc": "VEN",
      "simop": "VNZ"
    },
    {
      "name": "Vietnam",
      "iso3": "VNM",
      "phoneCode": "84",
      "capital": "Hanoi",
      "currency": "VND",
      "mmsi": "574",
      "id": "VN",
      "ioc": "VIE",
      "simop": "VTN"
    },
    {
      "name": "Virgin Islands (British)",
      "iso3": "VGB",
      "phoneCode": "+1-284",
      "capital": "Road Town",
      "currency": "USD",
      "mmsi": "378",
      "id": "VG",
      "ioc": "IVB",
      "simop": null
    },
    {
      "name": "Virgin Islands (US)",
      "iso3": "VIR",
      "phoneCode": "+1-340",
      "capital": "Charlotte Amalie",
      "currency": "USD",
      "mmsi": "379",
      "id": "VI",
      "ioc": "ISV",
      "simop": null
    },
    {
      "name": "Wallis And Futuna Islands",
      "iso3": "WLF",
      "phoneCode": "681",
      "capital": "Mata Utu",
      "currency": "XPF",
      "mmsi": "578",
      "id": "WF",
      "ioc": null,
      "simop": null
    },
    {
      "name": "Western Sahara",
      "iso3": "ESH",
      "phoneCode": "212",
      "capital": "El-Aaiun",
      "currency": "MAD",
      "mmsi": null,
      "id": "EH",
      "ioc": null,
      "simop": null
    },
    {
      "name": "Yemen",
      "iso3": "YEM",
      "phoneCode": "967",
      "capital": "Sanaa",
      "currency": "YER",
      "mmsi": "473, 475",
      "id": "YE",
      "ioc": "YEM",
      "simop": "YAR, YMN"
    },
    {
      "name": "Zambia",
      "iso3": "ZMB",
      "phoneCode": "260",
      "capital": "Lusaka",
      "currency": "ZMK",
      "mmsi": "678",
      "id": "ZM",
      "ioc": "ZAM",
      "simop": null
    },
    {
      "name": "Zimbabwe",
      "iso3": "ZWE",
      "phoneCode": "263",
      "capital": "Harare",
      "currency": "ZWL",
      "mmsi": "679",
      "id": "ZW",
      "ioc": "ZIM",
      "simop": "ZIM"
    }
  ]
}